[gd_scene load_steps=2 format=2]

[ext_resource path="res://game/scene/ui/inventory/Inventory.tscn" type="PackedScene" id=1]

[node name="Menu" type="Control"]
anchor_right = 1.0
anchor_bottom = 1.0
__meta__ = {
"_edit_use_anchors_": false
}

[node name="TabContainer" type="TabContainer" parent="."]
margin_right = 450.0
margin_bottom = 240.0
tab_align = 0
__meta__ = {
"_edit_use_anchors_": false
}

[node name="Stats" type="Tabs" parent="TabContainer"]
anchor_right = 1.0
anchor_bottom = 1.0
margin_left = 4.0
margin_top = 32.0
margin_right = -4.0
margin_bottom = -4.0

[node name="Objet" type="Tabs" parent="TabContainer"]
visible = false
anchor_right = 1.0
anchor_bottom = 1.0
margin_left = 4.0
margin_top = 32.0
margin_right = -4.0
margin_bottom = -4.0

[node name="ItemInventory" parent="TabContainer/Objet" instance=ExtResource( 1 )]
margin_right = -46.0
margin_bottom = -6.0

[node name="Competence" type="Tabs" parent="TabContainer"]
visible = false
anchor_right = 1.0
anchor_bottom = 1.0
margin_left = 4.0
margin_top = 32.0
margin_right = -4.0
margin_bottom = -4.0

[node name="Equipement" type="Tabs" parent="TabContainer"]
visible = false
anchor_right = 1.0
anchor_bottom = 1.0
margin_left = 4.0
margin_top = 32.0
margin_right = -4.0
margin_bottom = -4.0
