[gd_scene load_steps=4 format=2]

[ext_resource path="res://game/scene/global/World.gd" type="Script" id=1]
[ext_resource path="res://game/scene/ui/HUD.tscn" type="PackedScene" id=2]
[ext_resource path="res://game/scene/global/Players.gd" type="Script" id=3]

[node name="World" type="Node"]
script = ExtResource( 1 )

[node name="Players" type="Node" parent="."]
script = ExtResource( 3 )

[node name="Map" type="Node" parent="."]

[node name="Camera2D" type="Camera2D" parent="."]
position = Vector2( 340, 110 )
current = true

[node name="HUD" parent="." instance=ExtResource( 2 )]
